{
  "type": "entity",
  "mixins": [
    "lostems:mixins:skin_changer:ghost",
    "lostems:mixins:window:tall:ghost"
  ],
  "components": {
    "model_variants": {
      "default": {
        "models": [
          "file(clay_latticed_window_tall.qb)"
        ]
      }
    }
  },
  "entity_data": {
    "stonehearth:catalog": {
      "display_name": "i18n(lostems:entities.construction.clay_latticed_window_tall.display_name)",
      "description": "i18n(lostems:entities.construction.clay_latticed_window_tall.description)",
      "icon": "file(clay_latticed_window_tall.png)",
      "material_tags": [
        "clay",
        "crafted"
      ]
    },
    "lostems:skin_info": {
      "default_skin": "tan",
      "skins": {
        "tan": {
          "icon": "file(clay_latticed_window_tall.png)",
          "ordinal": 1,
          "attached_entities": false
        },
        "red": {
          "icon": "file(skins/red.png)",
          "ordinal": 2,
          "attached_entities": [
            "file(skins/red.json)"
          ]
        },
        "green": {
          "icon": "file(skins/green.png)",
          "ordinal": 3,
          "attached_entities": [
            "file(skins/green.json)"
          ]
        },
        "blue": {
          "icon": "file(skins/blue.png)",
          "ordinal": 4,
          "attached_entities": [
            "file(skins/blue.json)"
          ]
        }
      }
    }
  }
}