{
  "type": "entity",
  "mixins": "stonehearth:mixins:item_properties",
  "components": {
    "model_variants": {
      "default": {
        "models": [
          "file(clay_latticed_window_large_iconic.qb)"
        ]
      }
    },
    "mob": {
      "model_origin": {
        "x": 0,
        "y": 0,
        "z": 0.05
      }
    }
  },
  "entity_data": {
    "stonehearth:catalog": {
      "is_item": true,
      "category": "window"
    }
  }
}
