{
  "mixins": "stonehearth:mixins:item_properties",
  "type": "entity",
  "components": {
    "render_info": {
      "scale": 0.02
    },
    "model_variants": {
      "default": {
        "models": [
          "file(stone_wooden_door.qb)"
        ]
      }
    },
    "mob": {
      "model_origin": {
        "x": -0.3,
        "y": 0,
        "z": 0.3
      },
      "region_origin": {
        "x": 0.5,
        "y": 0,
        "z": 0.5
      }
    }
  },
  "entity_data": {
    "stonehearth:catalog": {
      "is_item": true,
      "category": "door"
    }
  }
}
