{
  "type": "recipe",
  "mixins": [
    "file(../golden_clay_wall_planter_large_recipe.json)"
  ],
  "effort": 18,
  "recipe_name": "i18n(lostems:jobs.potter.recipes.golden_clay_wall_planter_large_recipe.stonehearth_ace.recipe_name)",
  "description": "i18n(lostems:jobs.potter.recipes.golden_clay_wall_planter_large_recipe.stonehearth_ace.description)",
  "mixintypes": {
    "ingredients": "override"
  },
  "ingredients": [
    {
      "uri": "stonehearth_ace:refined:unfired_clay",
      "count": 1
    },
    {
      "uri": "stonehearth_ace:resources:herb:oleander",
      "count": 3
    }
  ]
}