{
   "type": "recipe",
   "mixins": [
      "file(../input_shelf_wall_clay_dyed_recipe.json)"
   ],
   "mixintypes": {
      "ingredients": "override"
   },
   "ingredients": [
      {
         "uri": "stonehearth_ace:refined:molded_clay",
         "count": 2
      }
   ]
}
