{
  "type": "recipe",
  "mixins": [
    "file(../potted_cactus_large_recipe.json)"
  ],
  "effort": 24,
  "recipe_name": "i18n(lostems:jobs.potter.recipes.potted_cactus_large_recipe.stonehearth_ace.recipe_name)",
  "description": "i18n(lostems:jobs.potter.recipes.potted_cactus_large_recipe.stonehearth_ace.description)",
  "mixintypes": {
    "ingredients": "override"
  },
  "ingredients": [
    {
      "uri": "stonehearth_ace:refined:unfired_clay",
      "count": 1
    },
    {
      "uri": "stonehearth:resources:herb:cactus_flower",
      "count": 3
    }
  ]
}