{
  "mixins": "stonehearth:mixins:item_properties",
  "type": "entity",
  "components": {
    "render_info": {
      "scale": 0.03
    },
    "model_variants": {
      "default": {
        "models": [
          "file(stone_window_large.qb)"
        ]
      }
    },
    "mob": {
      "model_origin": {
        "x": 0,
        "y": 0,
        "z": 0
      }
    }
  },
  "entity_data": {
    "stonehearth:catalog": {
      "is_item": true,
      "category": "window"
    }
  }
}
