{
  "components": {
    "mixintypes": {
      "model_variants": "override"
    },
    "model_variants": {
      "default": {
        "models": [
          "file(window_box_wooden_wide.qb)"
        ]
      }
    },
    "mob": {
      "model_origin": {
        "y": -0.55
      }
    }
  },
  "entity_data": {
    "stonehearth:catalog": {
      "category": "herbalist_planter",
      "material_tags": [
        "herbalist_planter"
      ]
    }
  }
}