{
  "mixins": [
    "/lostems/mixins/herbalist_planter/window_box_planter_wide.json"
  ],
  "stonehearth_ace:herbalist_planter": {
    "mixintypes": {
      "plant_locations": "override"
    },
    "plant_locations": [
      {
        "offset": { "x": 0.85, "y": 0.39, "z": 0.05 }
      },
      {
        "offset": { "x": 0.0, "y": 0.39, "z": 0.05 }
      },
      {
        "offset": { "x": -0.85, "y": 0.39, "z": 0.05 }
      }
    ]
  }
}