{
  "type": "entity",
  "mixins": [
    "lostems:mixins:skin_changer:ghost",
    "lostems:mixins:window:tall:ghost"
  ],
  "components": {
    "model_variants": {
      "default": {
        "models": [
          "file(wooden_window_tall.qb)"
        ]
      }
    }
  },
  "entity_data": {
    "stonehearth:catalog": {
      "display_name": "i18n(lostems:entities.construction.wooden_window_tall.display_name)",
      "description": "i18n(lostems:entities.construction.wooden_window_tall.description)",
      "icon": "file(wooden_window_tall.png)",
      "material_tags": [
        "wood"
      ]
    },
    "lostems:skin_info": {
      "default_skin": "mullion",
      "skins": {
        "mullion": {
          "icon": "file(wooden_window_tall.png)",
          "ordinal": 1.0,
          "attached_entities": false
        },
        "latticed": {
          "icon": "file(skins/latticed.png)",
          "ordinal": 1.1,
          "attached_entities": [
            "file(skins/latticed.json)"
          ]
        },
        "simple_mullion": {
          "icon": "file(skins/simple_mullion.png)",
          "ordinal": 2.0,
          "attached_entities": [
            "file(skins/simple_mullion.json)"
          ]
        },
        "simple_latticed": {
          "icon": "file(skins/simple_latticed.png)",
          "ordinal": 2.1,
          "attached_entities": [
            "file(skins/simple_latticed.json)"
          ]
        },
        "pointy_mullion": {
          "icon": "file(skins/pointy_mullion.png)",
          "ordinal": 3.0,
          "attached_entities": [
            "file(skins/pointy_mullion.json)"
          ]
        },
        "pointy_latticed": {
          "icon": "file(skins/pointy_latticed.png)",
          "ordinal": 3.1,
          "attached_entities": [
            "file(skins/pointy_latticed.json)"
          ]
        },
        "round_mullion": {
          "icon": "file(skins/round_mullion.png)",
          "ordinal": 4.0,
          "attached_entities": [
            "file(skins/round_mullion.json)"
          ]
        },
        "round_latticed": {
          "icon": "file(skins/round_latticed.png)",
          "ordinal": 4.1,
          "attached_entities": [
            "file(skins/round_latticed.json)"
          ]
        }
      }
    }
  }
}
