{
  "mixins": [
    "lostems:mixins:skin_changer:ghost"
  ],
  "entity_data": {
    "lostems:skin_info": {
      "default_skin": "red",
      "skins": {
        "red": {
          "icon": "/stonehearth_ace/entities/furniture/clay_comfy_bed/clay_comfy_bed.png",
          "ordinal": 1,
          "attached_entities": false
        },
        "yellow": {
          "icon": "file(skins/yellow.png)",
          "ordinal": 2,
          "attached_entities": [
            "file(skins/yellow.json)"
          ]
        },
        "blue": {
          "icon": "file(skins/blue.png)",
          "ordinal": 3,
          "attached_entities": [
            "file(skins/blue.json)"
          ]
        }
      }
    }
  }
}