{
  "mixins": [
    "stonehearth:mixins:placed_object",
    "lostems:mixins:skin_changer:ghost"
  ],
  "components": {
    "model_variants": {
      "default": {
        "models": [
          "file(input_table_ground_clay_dyed.qb)"
        ]
      }
    },
    "mob": {
      "model_origin": { "x": -0.5, "y": 0, "z": -0.5 },
      "region_origin": { "x": 0.5, "y": 0, "z": 0.5 }
    },
    "render_info": {
      "scale": 0.1,
      "animation_table": "/stonehearth/data/rigs/entities/containers/input_table/input_table.json"
    }
  },
  "entity_data": {
    "stonehearth:catalog": {
      "display_name": "i18n(lostems:entities.containers.input_table_ground_clay_dyed.display_name)",
      "description": "i18n(lostems:entities.containers.input_table_ground_clay_dyed.description)",
      "icon": "file(input_table_ground_clay_dyed.png)",
      "category": "storage",
      "material_tags": ["clay", "containers", "crafted", "furniture", "stockpile_furniture"]
    },
    "lostems:skin_info": {
      "default_skin": "red",
      "skins": {
        "red": {
          "icon": "file(input_table_ground_clay_dyed.png)",
          "ordinal": 1,
          "attached_entities": false
        },
        "green": {
          "icon": "file(skins/green.png)",
          "ordinal": 2,
          "attached_entities": [
            "file(skins/green.json)"
          ]
        },
        "blue": {
          "icon": "file(skins/blue.png)",
          "ordinal": 3,
          "attached_entities": [
            "file(skins/blue.json)"
          ]
        }
      }
    }
  }
}
