{
   "craftable_recipes": {
      "decorations": {
         "recipes": {
            "iron_double_door": {
               "recipe": "file(iron_double_door_recipe.json)"
            }
         }
      }
   }
}