{
  "mixins": [
    "lostems:mixins:skin_changer:ghost"
  ],
  "entity_data": {
    "lostems:skin_info": {
      "default_skin": "default",
      "skins": {
        "default": {
          "icon": "/stonehearth/entities/construction/wooden_window_frame_wide/wooden_window_frame_wide.png",
          "ordinal": 1.0,
          "attached_entities": [
            "file(skins/default.json)"
          ]
        },
        "diamond": {
          "icon": "file(skins/diamond.png)",
          "ordinal": 2,
          "attached_entities": [
            "file(skins/diamond.json)"
          ]
        },
        "arch": {
          "icon": "file(skins/arch.png)",
          "ordinal": 3,
          "attached_entities": [
            "file(skins/arch.json)"
          ]
        },
        "simple": {
          "icon": "file(skins/simple.png)",
          "ordinal": 4.0,
          "attached_entities": [
            "file(skins/simple.json)"
          ]
        },
        "round": {
          "icon": "file(skins/round.png)",
          "ordinal": 4.2,
          "attached_entities": [
            "file(skins/round.json)"
          ]
        }
      }
    }
  }
}