{
   "mixins": [
      "file(../iron_chest_recipe.json)"
   ],
   "mixintypes": {
      "ingredients": "override"
   },
   "ingredients": [
      {
         "material": "wood resource",
         "count": 2
      },
      {
         "uri": "stonehearth:refined:iron_ingot",
         "count": 1
      },
      {
         "uri": "stonehearth_ace:refined:metal_bits:hard",
         "count": 1
      }
   ]
}
