{
   "type": "recipe",
   "effort": 24,
   "work_units": 6,
   "recipe_name": "i18n(lostems:entities.containers.iron_chest.display_name)",
   "description": "i18n(lostems:entities.containers.iron_chest.description)",
   "flavor": "",
   "portrait": "/lostems/entities/containers/iron_chest/iron_chest.png",
   "workshop": "stonehearth:blacksmith:workbench",
   "level_requirement": 3,
   "ingredients": [
      {
         "uri": "stonehearth:refined:iron_ingot",
         "count": 2
      },
      {
         "material": "wood resource",
         "count": 2
      }
   ],
   "produces": [
      {
         "item": "lostems:containers:iron_chest"
      }
   ]
}
