{
  "mixins": "stonehearth:mixins:placed_object",
  "components": {
    "model_variants": {
      "default": {
        "models": [
          "file(input_table_ground_wood.qb)"
        ]
      }
    },
    "mob": {
      "model_origin": {
        "x": -0.5,
        "y": 0,
        "z": -0.5
      },
      "region_origin": {
        "x": 0.5,
        "y": 0,
        "z": 0.5
      }
    },
    "render_info": {
      "scale": 0.1,
      "animation_table": "/stonehearth/data/rigs/entities/containers/input_table/input_table.json"
    }
  },
  "entity_data": {
    "stonehearth:catalog": {
      "display_name": "i18n(lostems:entities.containers.input_table_ground_wood.display_name)",
      "description": "i18n(lostems:entities.containers.input_table_ground_wood.description)",
      "icon": "file(input_table_ground_wood.png)",
      "category": "storage",
      "material_tags": [
        "wood",
        "containers",
        "crafted",
        "furniture",
        "stockpile_furniture"
      ]
    }
  }
}
