{
   "components": {
      "stonehearth:entity_forms": {
         "placeable_on_walls": true,
         "placeable_on_ground": true,
         "hide_placement_ui": false
      },
      "region_collision_shape": {
         "region": [
            {
               "min": { "x": 0, "y": 0, "z": 0 },
               "max": { "x": 1, "y": 2, "z": 1 }
            }
         ]
      }
   }
}
