{
   "components": {
      "stonehearth:entity_forms": {
         "placeable_on_walls": true,
         "placeable_on_ground": true,
         "hide_placement_ui": false
      },
      "mob": {
         "mob_collision_type": "clutter",
         "align_to_grid": [ "x" ],
         "model_origin": { "x": 0, "y": 0, "z": 0 },
         "region_origin": { "x": 0, "y": 0, "z": 0.5 }
      },
      "region_collision_shape": {
         "region_collision_type": "none",
         "region": [
            {
               "min": { "x": -1, "y": 0, "z": 0 },
               "max": { "x": 1, "y": 2, "z": 1 }
            }
         ]
      }
   }
}
