{
   "mixins": [
      "stonehearth:mixins:placed_object"
   ],
   "components": {
      "mob": {
         "align_to_grid": [ "x" ],
         "model_origin": { "x": 0, "y": 0, "z": 0 },
         "region_origin": { "x": 0, "y": 0, "z": 0.5 }
      },
      "stonehearth:fixture": {
         "cursor": "stonehearth:cursors:create_window",
         "margin": {
            "left": 0,
            "right": 0,
            "top": 0,
            "bottom": 0
         },
         "bounds": {
            "min": { "x": -1, "y": 0 },
            "max": { "x": 1, "y": 2 }
         }
      },
      "stonehearth:portal": {
         "cutter": [
            {
               "min": { "x": -1, "y": 0 },
               "max": { "x": 1, "y": 2 }
            }
         ]
      }
   },
   "entity_data": {
      "stonehearth:catalog": {
         "category": "window",
         "material_tags": ["portal", "window", "stockpile_portal"]
      }
   }
}
