{
  "type": "entity",
  "mixins": [
    "lostems:mixins:window:large:ghost"
  ],
  "components": {
    "model_variants": {
      "default": {
        "models": [
          "file(cobblestone_window_large.qb)"
        ]
      }
    }
  },
  "entity_data": {
    "stonehearth:catalog": {
      "display_name": "i18n(lostems:entities.construction.cobblestone_window_large.display_name)",
      "description": "i18n(lostems:entities.construction.cobblestone_window_large.description)",
      "icon": "file(cobblestone_window_large.png)",
      "material_tags": [
        "stone",
        "crafted"
      ]
    }
  }
}
