{
  "type": "entity",
  "mixins": [
    "stonehearth:mixins:placed_object"
  ],
  "components": {
    "model_variants": {
      "default": {
        "models": [
          "/stonehearth/entities/containers/input_bin_woven_red/input_bin_woven_red.qb"
        ],
        "layer": "clothing",
        "transparent": false
      }
    },
    "render_info": {
      "scale": 0.1
    },
    "mob": {
      "model_origin": { "x": -0.5, "y": 0, "z": -0.5 },
      "region_origin": { "x": 0.5, "y": 0, "z": 0.5 }
    }
  },
  "entity_data": {
    "stonehearth:catalog": {
      "icon": "/stonehearth/entities/containers/input_bin_woven_red/input_bin_woven_red.png"
    }
  }
}