{
  "type": "entity",
  "mixins": [
    "lostems:mixins:skin_changer",
    "file(throw_rug_small_ghost.json)"
  ],
  "components": {
    "stonehearth:entity_forms": {
      "iconic_form": "file(throw_rug_small_iconic.json)",
      "ghost_form": "file(throw_rug_small_ghost.json)",
      "placeable_on_walls": false,
      "placeable_on_ground": true,
      "hide_placement_ui": false
    },
    "region_collision_shape": {
      "region_collision_type": "none",
      "region": [
        {
          "min": { "x": -1, "y": 0, "z": -1 },
          "max": { "x": 1, "y": 0.1, "z": 1 }
        }
      ]
    },
    "stonehearth:traveler_attraction": {}
  },
  "entity_data": {
    "stonehearth:net_worth": {
      "value_in_gold": 11,
      "rarity": "common",
      "shop_info": {
        "buyable": true,
        "sellable": true,
        "shopkeeper_level": 1,
        "shopkeeper_type": "caravan"
      }
    },
    "stonehearth:appeal": {
      "appeal": 6
    },
    "stonehearth:item_quality": {
      "variable_quality": true
    }
  }
}
