{
   "unlock_recipe_info": {
      "mixintypes": {"recipe_key": "override"},
      "recipe_key": [
         "workbenches:mason_pedestal_amberstone",
         "storage:output_box_amberstone",
         "doors:amberstone_tunnel_door",
         "windows:amberstone_window",
         "furniture:amberstone_table",
         "signage_decoration:amberstone_teapot",
         "signage_decoration:amberstone_lantern"
      ]
   }
}