{
   "type": "recipe",
   "effort": 11,
   "work_units": 3,
   "recipe_name": "i18n(lostems:jobs.potter.recipes.golden_clay_wall_planter_large_recipe.recipe_name)",
   "description": "i18n(lostems:jobs.potter.recipes.golden_clay_wall_planter_large_recipe.description)",
   "flavor": "i18n(lostems:jobs.potter.recipes.golden_clay_wall_planter_large_recipe.flavor)",
   "portrait": "/lostems/entities/decoration/golden_clay_wall_planter_large/golden_clay_wall_planter_large.png",
   "workshop": "stonehearth:potter:workbench",
   "level_requirement": 2,
   "ingredients": [
      {
         "material": "clay resource",
         "count": 3
      }
   ],
   "produces": [
      {
         "item": "lostems:decoration:golden_clay_wall_planter:large"
      }
   ]
}
