{
   "type": "recipe",
   "effort": 18,
   "work_units": 1,
   "recipe_name": "i18n(lostems:entities.containers.input_shelf_ground_clay.display_name)",
   "description": "i18n(lostems:entities.containers.input_shelf_ground_clay.description)",
   "flavor": "i18n(lostems:entities.containers.input_shelf_ground_clay.flavor)",
   "portrait": "/lostems/entities/containers/input_shelf_ground_clay/input_shelf_ground_clay.png",
   "workshop": "stonehearth:potter:workbench",
   "level_requirement": 2,
   "ingredients": [
      {
         "material": "clay resource",
         "count": 2
      }
   ],
   "produces": [
      {
         "item": "lostems:containers:input_shelf:ground:clay"
      }
   ]
}
