{
  "craftable_recipes": {
    "building_parts": {
      "recipes": {
        "clay_door": {
          "recipe": "file(clay_door_recipe.json)"
        },
        "clay_latticed_door": {
          "recipe": "file(clay_latticed_door_recipe.json)"
        },
        "golden_clay_wall_planter_large": {
          "recipe": "file(golden_clay_wall_planter_large_recipe.json)"
        },
        "mixintypes": {
          "blue_clay_door": "remove",
          "blue_clay_window_frame": "remove",
          "blue_latticed_window": "remove",
          "green_clay_door": "remove",
          "green_clay_window_frame": "remove",
          "green_latticed_window": "remove",
          "latticed_clay_window_frame": "remove",
          "red_clay_door": "remove",
          "red_clay_window_frame": "remove",
          "tall_clay_window": "remove",
          "tan_clay_window_frame": "remove",
          "tan_latticed_window": "remove"
        }
      }
    },
    "furniture": {
      "recipes": {
        "potted_cactus_large": {
          "recipe": "file(potted_cactus_large_recipe.json)"
        }
      }
    },
    "refined": {
      "ordinal": 60.1
    },
    "storage": {
      "recipes": {
        "mixintypes": {
          "input_bin_clay_blue": "remove",
          "input_bin_clay_green": "remove"
        },
        "input_corner_ground_clay": {
          "recipe": "file(input_corner_ground_clay_recipe.json)"
        },
        "input_corner_ground_clay_dyed": {
          "recipe": "file(input_corner_ground_clay_dyed_recipe.json)"
        },
        "input_shelf_ground_clay": {
          "recipe": "file(input_shelf_ground_clay_recipe.json)"
        },
        "input_shelf_ground_clay_dyed": {
          "recipe": "file(input_shelf_ground_clay_dyed_recipe.json)"
        },
        "input_shelf_wall_clay": {
          "recipe": "file(input_shelf_wall_clay_recipe.json)"
        },
        "input_shelf_wall_clay_dyed": {
          "recipe": "file(input_shelf_wall_clay_dyed_recipe.json)"
        },
        "input_table_ground_clay_dyed": {
          "recipe": "file(input_table_ground_clay_dyed_recipe.json)"
        },
        "output_box_clay_dyed": {
          "recipe": "file(output_box_clay_dyed_recipe.json)"
        }
      }
    },
    "windows": {
      "name": "i18n(lostems:jobs.shared.recipes.windows_name)",
      "ordinal": 70.1,
      "recipes": {
        "clay_latticed_window_frame_large": {
          "recipe": "file(clay_latticed_window_frame_large_recipe.json)"
        },
        "clay_latticed_window_frame_small": {
          "recipe": "file(clay_latticed_window_frame_small_recipe.json)"
        },
        "clay_latticed_window_frame_tall": {
          "recipe": "file(clay_latticed_window_frame_tall_recipe.json)"
        },
        "clay_latticed_window_frame_wide": {
          "recipe": "file(clay_latticed_window_frame_wide_recipe.json)"
        },
        "clay_latticed_window_large": {
          "recipe": "file(clay_latticed_window_large_recipe.json)"
        },
        "clay_latticed_window_small": {
          "recipe": "file(clay_latticed_window_small_recipe.json)"
        },
        "clay_latticed_window_tall": {
          "recipe": "file(clay_latticed_window_tall_recipe.json)"
        },
        "clay_latticed_window_wide": {
          "recipe": "file(clay_latticed_window_wide_recipe.json)"
        },
        "clay_window_frame_large": {
          "recipe": "file(clay_window_frame_large_recipe.json)"
        },
        "clay_window_frame_small": {
          "recipe": "file(clay_window_frame_small_recipe.json)"
        },
        "clay_window_frame_tall": {
          "recipe": "file(clay_window_frame_tall_recipe.json)"
        },
        "clay_window_frame_wide": {
          "recipe": "file(clay_window_frame_wide_recipe.json)"
        },
        "clay_window_large": {
          "recipe": "file(clay_window_large_recipe.json)"
        },
        "clay_window_small": {
          "recipe": "file(clay_window_small_recipe.json)"
        },
        "clay_window_tall": {
          "recipe": "file(clay_window_tall_recipe.json)"
        },
        "clay_window_wide": {
          "recipe": "file(clay_window_wide_recipe.json)"
        }
      }
    }
  }
}