{
   "type": "recipe",
   "effort": 8,
   "work_units": 3,
   "recipe_name": "i18n(lostems:entities.construction.cobblestone_window_wide.display_name)",
   "description": "i18n(lostems:entities.construction.cobblestone_window_wide.description)",
   "flavor": "i18n(lostems:entities.construction.cobblestone_window_wide.flavor)",
   "portrait": "/lostems/entities/construction/cobblestone_window_wide/cobblestone_window_wide.png",
   "workshop": "stonehearth:mason:workbench",
   "level_requirement": 0,
   "ordinal": 1.22,
   "ingredients": [
      {
         "material": "stone resource",
         "count": 1
      }
   ],
   "produces": [
      {
         "item": "lostems:portals:cobblestone_window:wide"
      }
   ]
}
