{
   "type": "recipe",
   "effort": 12,
   "work_units": 5,
   "recipe_name": "i18n(lostems:entities.construction.stone_wooden_tunnel_door.display_name)",
   "description": "i18n(lostems:entities.construction.stone_wooden_tunnel_door.description)",
   "flavor": "",
   "portrait": "/lostems/entities/construction/stone_wooden_tunnel_door/stone_wooden_tunnel_door.png",
   "workshop": "stonehearth:mason:workbench",
   "level_requirement": 2,
   "ingredients": [
      {
         "material": "stone resource",
         "count": 2
      },
      {
         "material": "wood resource",
         "count": 2
      }
   ],
   "produces": [
      {
         "item": "lostems:portals:stone_wooden_door:tunnel"
      }
   ]
}
