{
   "description": "i18n(lostems:entities.construction.stone_window_frame_tall.description)",
   "flavor": "i18n(stonehearth:jobs.mason.recipes.stone_window_frame_tall_recipe.description)",
   "level_requirement": 0,
   "ordinal": 1.13
}
