{
   "recipe_name": "i18n(lostems:entities.construction.stone_window.display_name)",
   "description": "i18n(lostems:entities.construction.stone_window.description)",
   "level_requirement": 2,
   "ordinal": 1.11
}
