{
   "type": "recipe",
   "effort": 13,
   "work_units": 4,
   "recipe_name": "i18n(lostems:jobs.mason.recipes.window_box_violet_large_recipe.recipe_name)",
   "description": "i18n(lostems:jobs.mason.recipes.window_box_violet_large_recipe.description)",
   "flavor": "i18n(lostems:jobs.mason.recipes.window_box_violet_large_recipe.flavor)",
   "portrait": "/lostems/entities/decoration/window_box_stone_violet_large/window_box_stone_violet_large.png",
   "workshop": "stonehearth:mason:workbench",
   "level_requirement": 0,
   "ingredients": [
      {
         "material": "stone resource",
         "count": 1
      },
      {
         "uri": "stonehearth:resources:herb:violet",
         "count": 3
      }
   ],
   "produces": [
      {
         "item": "lostems:decoration:window_box:stone_violet:large"
      }
   ]
}
