{
   "type": "recipe",
   "effort": 45,
   "work_units": 10,
   "recipe_name": "i18n(lostems:entities.construction.ornate_wooden_double_door_window.display_name)",
   "description": "i18n(lostems:entities.construction.ornate_wooden_double_door_window.description)",
   "flavor": "i18n(lostems:entities.construction.ornate_wooden_double_door_window.flavor)",
   "portrait": "/lostems/entities/construction/ornate_wooden_double_door_window/ornate_wooden_double_door_window.png",
   "workshop": "stonehearth:carpenter:toolbench",
   "level_requirement": 5,
   "ingredients": [
      {
         "material": "wood resource",
         "count": 4
      },
      {
         "uri": "stonehearth:resources:iron:ore",
         "count": 1
      },
      {
         "uri": "stonehearth:refined:gold_flakes",
         "count": 1
      }
   ],
   "produces": [
      {
         "item": "lostems:portals:ornate_wooden_double_door:window"
      }
   ]
}
