{
   "type": "recipe",
   "effort": 8,
   "work_units": 3,
   "recipe_name": "i18n(lostems:entities.furniture.simple_wooden_stool.display_name)",
   "description": "i18n(lostems:entities.furniture.simple_wooden_stool.description)",
   "flavor": "i18n(lostems:entities.furniture.simple_wooden_stool.flavor)",
   "portrait": "/lostems/entities/furniture/simple_wooden_stool/simple_wooden_stool.png",
   "workshop"    : "stonehearth:carpenter:workbench",
   "ingredients": [
      {
         "material": "wood resource",
         "count": 1
      }
   ],
   "produces": [
      {
         "item": "lostems:furniture:simple_wooden_stool"
      }
   ]
}