{
   "type": "recipe",
   "effort": 9,
   "work_units": 4,
   "recipe_name": "i18n(lostems:jobs.carpenter.recipes.window_box_brightbell_large_recipe.recipe_name)",
   "description": "i18n(lostems:jobs.carpenter.recipes.window_box_brightbell_large_recipe.description)",
   "flavor": "i18n(lostems:jobs.carpenter.recipes.window_box_brightbell_large_recipe.flavor)",
   "portrait": "/lostems/entities/decoration/window_box_brightbell_large/window_box_brightbell_large.png",
   "workshop": "stonehearth:carpenter:workbench",
   "level_requirement": 0,
   "ingredients": [
      {
         "material": "wood resource",
         "count": 1
      },
      {
         "uri": "stonehearth:resources:herb:brightbell",
         "count": 3
      }
   ],
   "produces": [
      {
         "item": "lostems:decoration:window_box:brightbell:large"
      }
   ]
}
