{
   "type": "recipe",
   "mixins": [
      "/stonehearth/jobs/carpenter/recipes/wooden_window_frame_wide_recipe.json"
   ],
   "recipe_name": "i18n(lostems:entities.construction.wooden_window_wide.display_name)",
   "description": "i18n(lostems:entities.construction.wooden_window_wide.description)",
   "flavor": "i18n(lostems:entities.construction.wooden_window_wide.flavor)",
   "portrait": "/lostems/entities/construction/wooden_window_wide/wooden_window_wide.png",
   "level_requirement": 2,
   "ordinal": 1.12,
   "mixintypes": {
      "produces": "override"
   },
   "produces": [
      {
         "item": "lostems:portals:wooden_window_wide"
      }
   ]
}
