{
   "keys": {
      "build:change_skin": {
         "display_name": "i18n(lostems:ui.shell.settings.controls_tab.key_binding_names.change_skin)",
         "category": "build",
         "ordinal": 60.01,
         "combo1": "slash",
         "combo2": ""
      }
   }
}
