{
  "type": "entity",
  "mixins": [
    "stonehearth:mixins:placed_object"
  ],
  "components": {
    "model_variants": {
      "default": {
        "models": [
          "/stonehearth/entities/containers/small_urn/small_urn.qb",
        ],
        "layer": "clothing",
        "transparent": false
      }
    },
    "render_info": {
      "scale": 0.2
    },
    "mob": {
      "model_origin": { "x": 0, "y": 0, "z": 0 },
      "region_origin": { "x": 0, "y": 0, "z": 0 },
      "align_to_grid": [
        "x",
        "z"
      ]
    }
  },
  "entity_data": {
    "stonehearth:catalog": {
      "icon": "file(blue.png)"
    }
  }
}