{
  "type": "entity",
  "mixins": [
    "stonehearth:mixins:placed_object"
  ],
  "components": {
    "model_variants": {
      "default": {
        "models": [
          "/stonehearth_ace/entities/decoration/stone_market_stall/stone_market_stall_7.qb"
        ],
        "layer": "clothing",
        "transparent": false
      }
    },
    "render_info": {
      "scale": 0.1
    }
  },
  "entity_data": {
    "stonehearth:catalog": {
      "icon": "file(fur_brown_3.png)"
    }
  }
}