{
  "type": "entity",
  "mixins": [
    "lostems:mixins:skin_changer",
    "file(input_corner_ground_clay_dyed_ghost.json)"
  ],
  "components": {
    "stonehearth:entity_forms": {
      "iconic_form": "file(input_corner_ground_clay_dyed_iconic.json)",
      "ghost_form": "file(input_corner_ground_clay_dyed_ghost.json)",
      "placeable_on_ground": true
    },
    "destination": {
      "region": [
        {
          "min": {
            "x": 0,
            "y": 0,
            "z": 0
          },
          "max": {
            "x": 2,
            "y": 3,
            "z": 2
          }
        }
      ],
      "adjacency_flags": [
        "front",
        "left"
      ]
    },
    "region_collision_shape": {
      "region": [
        {
          "min": {
            "x": 0,
            "y": 0,
            "z": 0
          },
          "max": {
            "x": 2,
            "y": 3,
            "z": 2
          }
        }
      ]
    },
    "stonehearth:storage": {
      "type": "input_crate",
      "capacity": 12,
      "render_contents": true,
      "filter_list": "stonehearth:ui:input_box:filters",
      "is_single_filter": true
    }
  },
  "entity_data": {
    "stonehearth:net_worth": {
      "value_in_gold": 7,
      "rarity": "common",
      "shop_info": {
        "buyable": true,
        "sellable": true,
        "shopkeeper_level": 1,
        "shopkeeper_type": "caravan"
      }
    },
    "stonehearth:appeal": {
      "appeal": 5
    },
    "stonehearth:item_quality": {
      "variable_quality": true
    }
  }
}
