{
  "type": "entity",
  "mixins": [
    "lostems:mixins:window:frame:small",
    "file(cobblestone_window_ghost.json)"
  ],
  "components": {
    "stonehearth:entity_forms": {
      "iconic_form": "file(cobblestone_window_iconic.json)",
      "ghost_form": "file(cobblestone_window_ghost.json)"
    }
  },
  "entity_data": {
    "stonehearth:net_worth": {
      "value_in_gold": 4,
      "rarity": "common",
      "shop_info": {
        "buyable": true,
        "sellable": true,
        "shopkeeper_level": 1,
        "shopkeeper_type": "caravan"
      }
    },
    "stonehearth:appeal": {
      "appeal": 6
    },
    "stonehearth:item_quality": {
      "variable_quality": true
    }
  }
}
