{
  "components": {
    "mixintypes": {
      "model_variants": "override"
    },
    "model_variants": {
      "default": {
        "models": [
          "file(window_box_clay_wide_iconic.qb)"
        ]
      }
    },
    "mob": {
      "model_origin": {
        "x": 0,
        "y": 0,
        "z": 0.05
      }
    }
  }
}