{
  "mixins": [
    "/lostems/mixins/herbalist_planter/window_box_planter_wide.json"
  ],
  "components": {
    "stonehearth_ace:herbalist_planter": {
      "mixintypes": {
        "plant_locations": "override"
      },
      "plant_locations": [
        {
          "offset": { "x": 0.85, "y": 0.39, "z": 0.0 },
          "rotation": 90
        },
        {
          "offset": { "x": 0.05, "y": 0.39, "z": 0.0 }
        },
        {
          "offset": { "x": -0.75, "y": 0.39, "z": 0.0 },
          "rotation": 270
        }
      ]
    }
  }
}