{
  "type": "entity",
  "mixins": [
    "lostems:mixins:skin_changer",
    "file(stone_window_tall_ghost.json)",
    "lostems:mixins:window:tall"
  ],
  "components": {
    "stonehearth:entity_forms": {
      "iconic_form": "file(stone_window_tall_iconic.json)",
      "ghost_form": "file(stone_window_tall_ghost.json)"
    }
  },
  "entity_data": {
    "stonehearth:net_worth": {
      "value_in_gold": 5,
      "rarity": "common",
      "shop_info": {
        "buyable": true,
        "sellable": true,
        "shopkeeper_level": 1,
        "shopkeeper_type": "caravan"
      }
    },
    "stonehearth:appeal": {
      "appeal": 7
    },
    "stonehearth:item_quality": {
      "variable_quality": true
    }
  }
}
