{
  "type": "entity",
  "mixins": "file(window_box_stone_snow_poppy_large_ghost.json)",
  "components": {
    "stonehearth:entity_forms": {
      "iconic_form": "file(window_box_stone_snow_poppy_large_iconic.json)",
      "ghost_form": "file(window_box_stone_snow_poppy_large_ghost.json)",
      "placeable_on_walls": true
    },
    "region_collision_shape": {
      "region": [
        {
          "min": {
            "x": -1,
            "y": 0,
            "z": 0
          },
          "max": {
            "x": 2,
            "y": 1,
            "z": 1
          }
        }
      ]
    }
  },
  "entity_data": {
    "stonehearth:net_worth": {
      "value_in_gold": 17,
      "rarity": "common",
      "shop_info": {
        "buyable": true,
        "sellable": true,
        "shopkeeper_level": 3,
        "shopkeeper_type": "caravan"
      }
    },
    "stonehearth:appeal": {
      "appeal": 11
    },
    "stonehearth:item_quality": {
      "variable_quality": true
    }
  }
}
