{
  "mixins": [
    "lostems:mixins:skin_changer:ghost"
  ],
  "entity_data": {
    "lostems:skin_info": {
      "default_skin": "red",
      "skins": {
        "red": {
          "icon": "/stonehearth/entities/containers/large_urn/large_urn.png",
          "ordinal": 1,
          "attached_entities": false
        },
        "green": {
          "icon": "file(skins/green.png)",
          "ordinal": 2,
          "attached_entities": [
            "file(skins/green.json)"
          ]
        },
        "blue": {
          "icon": "file(skins/blue.png)",
          "ordinal": 3,
          "attached_entities": [
            "file(skins/blue.json)"
          ]
        }
      }
    }
  }
}