{
  "type": "entity",
  "mixins": [
    "stonehearth:mixins:portals:double_door:ghost",
    "stonehearth:mixins:placed_object"
  ],
  "components": {
    "model_variants": {
      "default": {
        "models": [
          "file(ornate_wooden_double_door_window.qb)"
        ]
      }
    },
    "render_info": {
      "color_map": "stonehearth:color_map:gold",
      "material_maps": [
        "/stonehearth/data/materials/material_maps/gold_material_map.json"
      ]
    }
  },
  "entity_data": {
    "stonehearth:catalog": {
      "display_name": "i18n(lostems:entities.construction.ornate_wooden_double_door_window.display_name)",
      "description": "i18n(lostems:entities.construction.ornate_wooden_double_door_window.description)",
      "icon": "file(ornate_wooden_double_door_window.png)",
      "category": "door",
      "material_tags": [
        "wood",
        "portal",
        "crafted",
        "door",
        "stockpile_portal"
      ]
    }
  }
}
