{
  "craftable_recipes": {
    "building_parts": {
      "recipes": {
        "stone_wooden_door_2": {
          "recipe": "file(stone_wooden_door_2_recipe.json)"
        },
        "stone_wooden_double_door": {
          "recipe": "file(stone_wooden_double_door_recipe.json)"
        },
        "stone_wooden_tunnel_door": {
          "recipe": "file(stone_wooden_tunnel_door_recipe.json)"
        },
        "window_box_carved_violet": {
          "recipe": "file(window_box_carved_violet_recipe.json)"
        },
        "window_box_snow_poppy": {
          "recipe": "file(window_box_stone_snow_poppy_recipe.json)"
        },
        "window_box_snow_poppy_large": {
          "recipe": "file(window_box_snow_poppy_large_recipe.json)"
        },
        "window_box_violet_large": {
          "recipe": "file(window_box_violet_large_recipe.json)"
        }
      }
    }
  }
}