{
  "type": "recipe",
  "mixins": [
    "file(../stone_wooden_double_door_recipe.json)"
  ],
  "level_requirement": 4,
  "mixintypes": {
    "ingredients": "override"
  },
  "ingredients": [
      {
         "material": "stone resource",
         "count": 2
      },
      {
         "material": "wood resource",
         "count": 2
      },
      {
         "uri": "stonehearth_ace:refined:metal_bits:hard",
         "count": 1
      }
  ]
}