{
  "type": "recipe",
  "mixins": [
    "file(../window_box_stone_snow_poppy_recipe.json)"
  ],
  "effort": 15,
  "recipe_name": "i18n(lostems:jobs.mason.recipes.window_box_snow_poppy_recipe.stonehearth_ace.recipe_name)",
  "description": "i18n(lostems:jobs.mason.recipes.window_box_snow_poppy_recipe.stonehearth_ace.description)"
}