{
  "type": "recipe",
  "mixins": [
    "file(../window_box_violet_large_recipe.json)"
  ],
  "effort": 22,
  "recipe_name": "i18n(lostems:jobs.mason.recipes.window_box_violet_large_recipe.stonehearth_ace.recipe_name)",
  "description": "i18n(lostems:jobs.mason.recipes.window_box_violet_large_recipe.stonehearth_ace.description)"
}