{
  "type": "entity",
  "mixins": [
    "stonehearth:mixins:placed_object"
  ],
  "components": {
    "model_variants": {
      "default": {
        "models": [
          "/stonehearth_ace/entities/decoration/blue_market_stall/blue_market_stall_6.qb"
        ],
        "layer": "clothing",
        "transparent": false
      }
    },
    "render_info": {
      "scale": 0.1
    },
    "mob": {
       "model_origin": { "x": 0.5, "y": 0, "z": 0 },
       "region_origin": { "x": 0.5, "y": 0, "z": 0.5 }
    }
  },
  "entity_data": {
    "stonehearth:catalog": {
      "icon": "file(white_green.png)"
    }
  }
}