{
  "mixins": "stonehearth:mixins:item_properties",
  "type": "entity",
  "components": {
    "model_variants": {
      "default": {
        "models": [
          "file(input_corner_ground_clay_iconic.qb)"
        ]
      }
    },
    "render_info": {
      "color_map": "stonehearth:color_map:gold",
      "material_maps": [
        "/stonehearth/data/materials/material_maps/gold_material_map.json"
      ]
    },
    "mob": {
      "model_origin": {
        "x": 0,
        "y": 0,
        "z": 0
      }
    }
  },
  "entity_data": {
    "stonehearth:catalog": {
      "is_item": true,
      "category": "storage"
    }
  }
}
