{
  "mixins": [
    "lostems:mixins:skin_changer:ghost"
  ],
  "entity_data": {
    "lostems:skin_info": {
      "default_skin": "default",
      "skins": {
        "default": {
          "icon": "/stonehearth/entities/construction/stone_window_frame_tall/stone_window_frame_tall.png",
          "ordinal": 1,
          "attached_entities": false
        },
        "arch": {
          "icon": "file(skins/arch.png)",
          "ordinal": 2,
          "attached_entities": [
            "file(skins/arch.json)"
          ]
        }
      }
    }
  }
}